[
    {
        "name": "Asus Zenphone Max Pro M1",
        "brand": "Asus",
        "codename": "X00TD",
        "maintainer_name": "Subins Mani",
        "maintainer_url": "https://forum.xda-developers.com/member.php?u=7868666",
        "xda_thread": "https://forum.xda-developers.com/asus-zenfone-max-pro-m1/development/rom-pixysos-t3890672"
    },
    {
        "name": "Leeco Le 2",
        "brand": "Leeco",
        "codename": "s2",
        "maintainer_name": "Syed Ehteshm",
        "maintainer_url": "https://forum.xda-developers.com/member.php?u=8865764",
        "xda_thread": "https://forum.xda-developers.com/moto-g5s-plus/development/rom-t3860526"
    },
    {
        "name": "Lenovo A6000",
        "brand": "Lenovo",
        "codename": "a6000",
        "maintainer_name": "Rohit Sinha",
        "maintainer_url": "https://forum.xda-developers.com/member.php?u=8680598",
        "xda_thread": "https://forum.xda-developers.com/lenovo-a6000/development/rom-pixysos-2-3lenovo-a6000-plus-t3864752"
    },
    {
        "name": "Moto G Turbo",
        "brand": "Motorola",
        "codename": "merlin",
        "maintainer_name": "Hritik Utekar",
        "maintainer_url": "https://forum.xda-developers.com/member.php?u=7560545",
        "xda_thread": "https://forum.xda-developers.com/2015-moto-g/development/rom-pixysos-t3853858"
    },
    {
        "name": "Moto G5 Plus",
        "brand": "Motorola",
        "codename": "potter",
        "maintainer_name": "iCodeLife",
        "maintainer_url": "https://forum.xda-developers.com/member.php?u=9229743",
        "xda_thread": "https://forum.xda-developers.com/g5-plus/development/rom-pixys-os-t3846015"
    },
    {
        "name": "Moto GS5 Plus",
        "brand": "Motorola",
        "codename": "sanders",
        "maintainer_name": "Syed Sajid",
        "maintainer_url": "https://forum.xda-developers.com/member.php?u=6116475",
        "xda_thread": "https://forum.xda-developers.com/moto-g5s-plus/development/rom-t3860526"
    },
    {
        "name": "Wileyfox Swift",
        "brand": "Wileyfox",
        "codename": "crackling",
        "maintainer_name": "Dev4Perf",
        "maintainer_url": "https://forum.xda-developers.com/member.php?u=7865714",
        "xda_thread": "https://forum.xda-developers.com/wileyfox-swift/orig-development/rom-pixysos-t3891599"
    },
    {
        "name": "Redmi 4A",
        "brand": "Xiaomi",
        "codename": "rolex",
        "maintainer_name": "Arpon Sarkar",
        "maintainer_url": "https://forum.xda-developers.com/member.php?u=8843815",
        "xda_thread": "https://forum.xda-developers.com/redmi-4a/development/9-0-rom-pixysos-v2-4rolex-t3867508"
    },
    {
        "name": "Redmi Note 4",
        "brand": "Xiaomi",
        "codename": "mido",
        "maintainer_name": "Dattu Sharma",
        "maintainer_url": "https://forum.xda-developers.com/member.php?u=8531102",
        "xda_thread": "https://forum.xda-developers.com/redmi-note-4/xiaomi-redmi-note-4-snapdragon-roms-kernels-recoveries--other-development/rom-pixysos-t3863047"
    },
    {
        "name": "Redmi Note 5 Plus",
        "brand": "Xiaomi",
        "codename": "vince",
        "maintainer_name": "Rajkale99",
        "maintainer_url": "https://forum.xda-developers.com/member.php?u=6895196",
        "xda_thread": "https://forum.xda-developers.com/redmi-note-5/development/rom-t3853574/post78232391"
    },
    {
        "name": "Xiaomi Mi A1",
        "brand": "Xiaomi",
        "codename": "tissot",
        "maintainer_name": "Amar Bajpai",
        "maintainer_url": "https://forum.xda-developers.com/member.php?u=7590774",
        "xda_thread": "https://forum.xda-developers.com/mi-a1/development/unofficial-pixys-os-t3845454"
    },
    {
        "name": "Xiaomi Mi A2",
        "brand": "Xiaomi",
        "codename": "jasmine",
        "maintainer_name": "Akshay Kakatkar",
        "maintainer_url": "https://forum.xda-developers.com/member.php?u=8624500",
        "xda_thread": "https://forum.xda-developers.com/mi-a2/development/rom-pixysos-t3891737"
    },
    {
        "name": "Xiaomi Redmi 3S",
        "brand": "Xiaomi",
        "codename": "land",
        "maintainer_name": "Amarjithtk",
        "maintainer_url": "https://forum.xda-developers.com/member.php?u=8595889",
        "xda_thread": "https://forum.xda-developers.com/xiaomi-redmi-3s/development/rom-pixysos-amareverything-t3849450"
    },
    {
        "name": "Xiaomi Redmi 4X",
        "brand": "Xiaomi",
        "codename": "santoni",
        "maintainer_name": "Anindito",
        "maintainer_url": "https://forum.xda-developers.com/member.php?u=9059902",
        "xda_thread": "https://forum.xda-developers.com/xiaomi-redmi-4x/development/9-0-0r6-pixysos-2-0-t3839629"
    },
    {
        "name": "Xiaomi Redmi Note 5",
        "brand": "Xiaomi",
        "codename": "whyred",
        "maintainer_name": "MiguelNdeCarvalho",
        "maintainer_url": "https://forum.xda-developers.com/member.php?u=7982194",
        "xda_thread": "https://forum.xda-developers.com/redmi-note-5-pro/development/rom-pixysos-t3846622"
    },
    {
        "name": "Zuk Z2 Plus",
        "brand": "Lenovo",
        "codename": "z2_plus",
        "maintainer_name": "Aswin A S",
        "maintainer_url": "https://forum.xda-developers.com/member.php?u=8499818",
        "xda_thread": "https://forum.xda-developers.com/lenovo-zuk-z2/development/rom-pixys-os-zuk-z2-plus-t3854189"
    }
]
